[
    {
        "name": "Audi Q5",
        "price": 58500 ,
        "url": "./img/Audi-q5.png",
        "article": 1678 ,
        "color": "#4f5a5f"
    },
    {
        "name": "Mercedes-Benz GLE Coupe",
        "price": 70000,
        "url":"./img/Mercedes-gle.png",
        "article": 1679,
        "color": "#868a8a"
    },
    {
        "name": "Porsche Macan S",
        "price": 65000,
        "url": "./img/Porsche-macan.png",
        "article": 1680,
        "color": "black"
    },
    {
        "name": "Porsche Cayenne",
        "price": 95000,
        "url": "./img/Porsche-cayenne.png",
        "article": 1681,
        "color": "black"
    },
    {
        "name": "Land Rover Discovery Sport",
        "price": 43000,
        "url": "./img/Land-rover-discovery-sport.png",
        "article": 1682,
        "color":"red"
    },
    {
        "name": "Volkswagen T-Roc",
        "price": 40000,
        "url": "./img/Volkswagen-t-roc.png",
        "article": 1683,
        "color":"yellow"
    },
    {
        "name": "Audi A7",
        "price": 75000,
        "url": "./img/Audi-a7.png",
        "article": 1684,
        "color":"#fff"
    },
    {
        "name": "Mercedes-Benz AMG GT",
        "price": 89000,
        "url": "./img/Mercedes-amg-gt.png",
        "article": 1685 ,
        "color":"green"
    },
    {
        "name": "Mercedes-Benz C63",
        "price": 85000,
        "url": "./img/Mercedes-amg-c63.png",
        "article": 1686 ,
        "color":"grey"
    },
    {
        "name": "Mercedes-Benz G63",
        "price": 250000,
        "url": "./img/Mercedes-g63.png",
        "article": 1687 ,
        "color":"#000"
    }
]